{
  "migIndex": 1,
  "data": [
    {
      "path": "src/assets/fonts/Oswald-Bold.ttf",
      "sha1": "6e78c90d65a6133d979daebc1255d2f560a97c79"
    },
    {
      "path": "src/assets/fonts/Oswald-Light.ttf",
      "sha1": "18b6fe10677763e882985371a015bdc45ec2943c"
    },
    {
      "path": "src/assets/fonts/Oswald-Medium.ttf",
      "sha1": "70e75da33d777c839cf59cb042adf7fc5fa0235a"
    },
    {
      "path": "src/assets/fonts/Oswald-Regular.ttf",
      "sha1": "06aae8f5a28908ba8eca0d5bdc01cedc2a184a5f"
    },
    {
      "path": "src/assets/fonts/Oswald-SemiBold.ttf",
      "sha1": "10d1c319ab0685f35f3c9eb87a9524de0560345e"
    },
    {
      "path": "src/assets/fonts/PlusJakartaSans-Bold.ttf",
      "sha1": "65d4478e92a9ff9298b748f8088e05972cd18697"
    },
    {
      "path": "src/assets/fonts/PlusJakartaSans-Medium.ttf",
      "sha1": "07f54b7e503556eb04ec994341f8ce13e697f431"
    },
    {
      "path": "src/assets/fonts/PlusJakartaSans-Regular.ttf",
      "sha1": "25ba6345e577fa516ad5f89405933171a8d81eb0"
    },
    {
      "path": "src/assets/fonts/PlusJakartaSans-SemiBold.ttf",
      "sha1": "93ab83dcdba88999dfb5844e285229c5da6ae63f"
    }
  ]
}
